<svg version="1.2" xmlns="http://www.w3.org/2000/svg" viewBox="0 0 512 256" width="512" height="256">
	<title>tierra3</title>
	<style>
		.s0 { fill: #2d1e16 } 
		.s1 { fill: #decab3 } 
		.s2 { fill: #bc9c7d } 
		.s3 { fill: #936c49 } 
	</style>
	<g id="Background">
		<path id="Path 0" class="s0" d="m265.4 1c1.2 0 2.9 0.6 3.8 1.3 1.4 0.9 1.5 1.5 0.5 2.4-0.9 0.9-0.6 1.5 1.6 3 1.5 1 3.2 3.1 3.7 4.8 0.5 1.7 1.4 5.9 2.1 9.5 0.7 4 2 7.4 3.3 8.7 2 2.2 2 2.4 0.4 4-1.2 1.3-1.6 2.8-1.3 5.1 0.3 1.7 0.7 4.6 1 6.2 0.4 2.5 0.2 3-1.5 3-1.1 0-2 0.6-2 1.3 0 0.6 0.4 1.7 0.8 2.2 0.4 0.5 1.5 1 2.4 1 0.9 0 2-0.3 2.5-0.8 0.4-0.4 1.8 0 3.1 0.8 2 1.3 2.5 1.3 4.7 0 1.7-1 2.5-2.4 2.5-4.2 0-1.6-0.7-4-1.5-5.5-1.2-2.2-1.2-3.3-0.4-5 0.8-1.7 0.7-3-0.3-5.1-0.7-1.5-1.6-2.8-2-2.7-0.5 0-1.2 0.8-1.7 1.8-0.5 0.9-1.3 1.4-1.8 1-0.4-0.4-0.4-1.3 0-2 0.4-0.7 1.4-2.4 2.2-3.8 0.8-1.4 1.5-4.4 1.5-6.7 0-2.4 0.4-4.4 0.9-4.5 0.4-0.2 1.1-1.3 1.5-2.5 0.3-1.3 0.2-2.3-0.4-2.3-0.5 0-1-0.7-1-1.5 0-0.8-0.5-1.6-1.1-1.7-0.9-0.2-0.9-0.9 0-2.5 0.6-1.4 2-2.3 3.4-2.3 1.2-0.1 3 0.7 3.9 1.7 1.3 1.3 1.5 2.1 0.7 2.8-0.7 0.7-0.5 1.6 0.9 3 1.1 1.1 3.3 4.7 5 8 2.5 5.1 2.8 6.3 1.7 8-0.6 1.1-1.5 3.9-1.9 6.3-0.3 2.3-1.2 4.8-1.8 5.6-1 1-1.1 2.8-0.4 6.7 0.4 3 1 6.4 1.2 7.7 0.3 1.8 0.8 2.1 2.7 1.5 1.2-0.4 2.9-0.6 3.7-0.6 0.8 0.1 4.2 0.3 7.5 0.6 3.3 0.2 6.6 0.3 7.3 0.1 0.6-0.2 1.2-1.4 1.2-2.6 0-1.3-0.7-3.7-1.5-5.3-0.9-1.6-1.6-4.6-1.6-6.5-0.1-1.9-0.3-2.7-0.5-1.7-0.2 0.9-1.2 1.9-2.1 2.2-1 0.3-2.5 0.3-3.3 0-1.1-0.4-1.5-2-1.3-6.7 0.1-3.5 0.9-8 1.7-10 0.9-2.1 2.1-3.7 2.8-3.5 0.8 0.1 1.5-1.6 1.9-4.8 0.5-3.9 0.2-5.6-1.2-7.7-1.1-1.6-1.7-3.5-1.4-4.3 0.3-0.8 1.6-1.7 3-2 1.4-0.3 3.2 0.1 4 0.8 0.9 0.6 1.3 2 1 3-0.3 1.2 0.3 2 2 2.7 1.4 0.6 2.7 1 3 1 0.3 0 0.5-1.3 0.5-3 0-1.7 0.5-3 1-3 0.6 0 1 2.7 1 6 0 4.2 0.6 7.1 2 9.5 1.3 2.2 1.7 4 1.1 4.8-0.5 0.6-0.5 2.1 0 3.2 0.4 1.1 0.8 2.6 0.8 3.3 0.1 0.6-0.6 1.3-1.5 1.5-1.1 0.1-2.2 2.1-3 5.5-1.4 5.2-1.4 5.2 1.8 9.5 1.8 2.3 3.8 4.5 4.5 5 0.7 0.4 1.3 2.3 1.3 4.2 0 1.9 0.5 3.5 1 3.5 0.6 0 1.2-0.3 1.4-0.7 0.2-0.5 3.7-0.6 7.8-0.4 4 0.2 9.8-0.2 12.8-0.9 5.1-1.1 5.6-1 7.5 0.9 1.1 1.1 2.6 2.1 3.3 2.1 1 0 1-0.5 0-2.7-0.7-1.5-2.1-3.6-3-4.5-1-1-1.8-2.6-1.7-3.5 0-1 0.4-2.7 0.8-3.8 0.5-1.1 0.5-2.5 0.1-3-0.4-0.5-1.3-4.1-1.8-8-0.6-3.9-0.8-7.7-0.5-8.5 0.4-0.8 1.4-2.3 2.5-3.3 1-0.9 1.8-2.1 1.8-2.7 0-0.6-0.6-1-1.2-1-0.7 0-2.1-1.6-3.2-3.7-1-2.1-1.6-4.4-1.2-5 0.3-0.7 2-1.3 3.6-1.3 2.1 0 3.6 0.8 5 2.8 1.2 1.5 1.8 3.3 1.5 4-0.3 0.6 0.2 1.4 1 1.7 0.8 0.3 2.4 0.5 3.5 0.5 1.1 0 2 0.6 2 1.3-0.1 0.6 0.9 2.1 2 3.2 1.1 1.1 2.1 2.8 2 3.8 0 0.9-0.4 1.9-1 2.2-0.5 0.3-1 0.9-1 1.5 0 0.5 0.8 1.7 1.8 2.6 1.4 1.3 1.5 1.9 0.5 4-0.7 1.3-1.1 4-0.8 5.9 0.4 2.7 0.1 3.5-1 3.5-0.8 0-1.7 0.7-2 1.5-0.3 0.8-0.9 1.3-1.5 1-0.5-0.3-1 0.5-1 1.8 0 1.2 0.4 3.6 1 5.2 0.9 2.8 1.4 3 7.7 3.7 3.8 0.5 8 0.8 9.6 0.8 2.4 0 2.8-0.5 3.2-3.8 0.3-2 0.8-4.9 1-6.5 0.3-1.7 0.9-2.4 1.6-2 0.6 0.5 1.5 0.1 2-0.7 0.5-0.8 0.8-3.1 0.8-5 0-3-0.2-3.2-1-1.5-0.6 1.4-0.8-0.4-0.4-5.5 0.4-5.1 1-7.7 2-8.3 0.8-0.4 1.5-1.3 1.5-1.9 0.1-0.7-1.1-2.5-2.5-4-1.4-1.6-2.4-3.6-2.2-4.5 0.1-1.3 1.3-1.9 3.7-2.1 2.6-0.2 4.1 0.3 8.1 4.3l0.4-2.3c0.3-1.2 1.1-2.2 1.8-2.2 0.6 0 1.5 0.2 2 0.5 0.4 0.3 0 1.7-0.8 3.3-0.8 1.5-1.5 3.5-1.5 4.5 0 0.9 0.6 2.7 1.3 3.9 0.6 1.2 2.2 3 3.5 4 1.2 1 2.2 2.9 2.2 4.3 0 1.4-0.6 2.5-1.2 2.6-0.8 0-0.7 0.3 0.2 0.6 1.3 0.5 1.3 0.6 0 1.3-1.3 0.8-1.3 1 0 2.5 1.3 1.4 1.3 1.6-0.2 1.5-1.3 0-1.7 0.7-1.5 2.3 0.1 1.2-0.6 2.9-1.5 3.7-1.6 1.4-1.6 1.8 0.3 7 1.1 3 2.2 5.7 2.5 6 0.3 0.3 3.7 0.4 7.5 0.3 3.8-0.2 7.9 0.1 9.2 0.6 1.4 0.6 2.8 0.5 3.9-0.3 1-0.6 1.7-2.4 1.8-4.3 0-1.8 0.5-4.2 1-5.3 0.6-1.1 1.1-3.7 1.3-5.8 0.2-2 0.7-4.4 1.1-5.2 0.5-0.9 0.3-1.9-0.3-2.5-0.6-0.5-1.1-2.4-1.1-4 0-1.6 0.8-4.8 1.9-7 1.6-3.4 1.7-4.1 0.5-4.8-0.8-0.4-1.4-1.4-1.4-2.2 0-0.8-0.8-1.8-1.7-2.1-1.6-0.5-1.5-0.8 1-3 1.5-1.3 3.3-2.4 4-2.4 0.6 0 2.2 1.1 3.5 2.5 2 2.3 2.1 2.6 0.5 3.4-1.7 0.9-1.7 1 0 1.5 0.9 0.3 2.5 0.9 3.5 1.3 0.9 0.4 2.4 0.8 3.2 0.8 0.8 0.1 2.2 0.3 3 0.3 1.2 0.1 1.3 1 0.8 4.2-0.5 2.2-0.5 4 0 4 0.4 0 1.5 1.5 2.6 3.2 1.7 3.1 1.7 3.6 0.2 8.6-0.9 2.8-1.3 6.4-1 8q0.6 2.7-0.7 3.4c-1.1 0.5-1.2 0.9-0.1 2.2 0.6 0.9 1 1.9 0.7 2.4-0.2 0.4 0 2.3 0.5 4.2 0.5 2.1 1.7 3.8 2.9 4.3 1.2 0.4 2.3 0.3 2.6-0.3 0.3-0.6 1.2-0.5 2.3 0.4 0.9 0.8 5.3 1.7 9.7 2.1 4.4 0.3 11.7 0.6 24.5 0.5v6c0 4.2-0.4 6-1.2 6-0.7-0.1-5.1-0.7-9.8-1.5-4.7-0.7-11.2-1.8-14.5-2.5-3.3-0.6-7.8-1.3-10-1.6-2.3-0.2-3.6-0.1-3 0.4 0.6 0.5 4.4 1.4 8.5 2.1 4.1 0.7 9.5 1.7 12 2.1 2.5 0.5 6.5 1.3 9 1.7 2.5 0.4 5 0.8 5.5 0.9 0.6 0.1 1.6 0.2 2.3 0.3 0.9 0.1 1.2 14.6 1.2 69.1 0 37.9-0.3 69-0.7 69-0.5 0.1-1.5-0.6-2.3-1.5-0.8-0.9-2.7-1.6-4.2-1.5-1.6 0-2.8-0.4-2.8-1 0-0.6-0.8-1-1.7-0.9-1 0-3.3-0.1-5-0.3-1.8-0.2-3.5-0.9-3.8-1.5-0.3-0.7-3.6-2.3-7.5-3.5-5.7-1.9-7.2-2.1-8.2-1-0.7 0.7-1.2 3.1-1 5.5 0.1 2.3 0.7 4.8 1.2 5.5 0.6 0.6 0.9 1.8 0.8 2.5-0.1 0.6 0.1 2.2 0.5 3.5 0.4 1.4 0 3.7-1.3 6.5-1.1 2.3-2 5.4-2 7 0 2.2-0.5 2.8-3 3.2-2.1 0.4-3.7 1.6-5.5 4.5-1.9 3.1-3.1 4-5.2 4-1.6 0-3.2-0.4-3.8-0.8-0.5-0.4-1.6-1.5-2.2-2.4-1.1-1.5-0.9-2.2 1.2-4.5 1.9-2.1 2.3-3.4 1.9-5.3-0.4-1.4-1.1-2.9-1.6-3.5-0.4-0.6-0.8-3.2-0.7-6 0-2.7 0-5.2-0.1-5.5 0-0.3-0.3-2.4-0.6-4.7-0.2-2.4-1-5.5-1.8-7-0.8-1.6-1.2-3.9-0.9-5.3 0.3-1.6-0.3-3.5-1.6-5.2-1.2-1.6-4.5-4-7.3-5.4-2.9-1.4-6.4-3.6-7.8-5-1.4-1.3-3.1-2.4-3.7-2.4-0.7 0-1.7 0.9-2.3 2-0.5 1.1-1 3-1 4.3 0 1.2-0.6 4.7-1.4 7.7-1.2 4.6-1.3 5.7-0.2 6.5 0.8 0.6 1.5 2.4 1.7 4 0.3 1.9 1.2 3.4 2.7 4 2 0.9 2.2 1.5 1.6 5.5-0.3 2.8-1.4 5.3-2.8 6.5-1.2 1.1-3 3.4-4 5-1.7 2.9-1.7 3.2 0.3 8.3 1.2 2.8 2.1 5.4 2.1 5.7 0 0.3-0.7 0.5-1.5 0.5-0.8 0-1.9-1.5-2.5-3.2-0.9-3-1.1-3.1-2.5-1.8-0.9 0.8-1.6 2.1-1.5 2.8 0 0.7-1.3 1.2-3.5 1.2-2.5 0-3.9-0.6-5-2.2-1.2-1.9-1.2-2.7-0.1-4.8 0.7-1.4 2.2-2.8 3.2-3.3 1.8-0.7 1.8-0.9-0.6-3.2-1.4-1.4-2.3-2.7-2-3 0.3-0.2 0-3.3-0.6-6.7-0.7-3.5-1-7.2-0.7-8.3 0.4-1.6 0.3-1.7-0.6-0.5-0.8 1.2-1.1 0.8-1.1-1.7 0-1.8-0.4-3.5-1-3.8-0.5-0.3-1-1.6-1-3 0-1.5 0.7-2.7 1.8-3 0.9-0.3 1.7-0.4 1.7-0.3 0.1 0.2 0.8 1.9 1.8 3.8 1.7 3.4 1.7 3.4 1.1 0.5-0.4-1.6-0.7-6.1-0.6-10 0.2-3.8-0.1-7.5-0.5-8.1-0.5-0.6-1.7-1.6-2.8-2.2-1.1-0.5-6.3-1.4-21-2.5l-1.2 3.4c-0.6 1.9-1.5 5.7-1.8 8.4-0.5 3-0.3 5.8 0.4 7 0.6 1.1 1.1 1.7 1.1 1.3 0-0.5 0.9 0.1 2 1.2 1.1 1.1 2 3.3 2 5 0 1.7 0.5 4 1.1 5.3 0.9 1.8 0.8 2.4-0.4 3.2-1.4 0.9-1.4 1.5-0.4 4.3 1.1 3.1 1 3.6-1 5.3-1.9 1.5-2.3 2.9-2.3 7.4 0 4.2-0.3 5.5-1.5 5.5-1 0-1.6-1.1-1.7-3.2-0.2-1.7-0.9-3.3-1.5-3.5-0.7-0.2-1.3 0.5-1.3 1.5 0 0.9-1.2 3-2.7 4.5-1.7 1.7-3.6 2.7-4.8 2.5-1.5-0.2-2.1-1.2-2.3-3.8-0.2-2.4 0.3-4.2 1.8-5.7 1.3-1.5 1.8-2.9 1.3-4-0.4-1-1.3-2.2-2.1-2.8-1.1-0.8-1.2-2.8-0.6-10.5 0.5-5.2 0.7-11.1 0.6-13-0.2-1.9 0.2-4.2 1-5 0.7-0.9 1.9-2.6 2.6-3.8 0.6-1.2 1.2-3.2 1.2-4.4 0.1-1.3-0.9-3.2-4.2-6.3l-1.4 2c-0.8 1.1-1.4 1.4-1.4 0.8 0-0.7-1.1-1.7-2.5-2.3-1.4-0.6-7.9-1.1-14.5-1.2-7.5-0.2-12 0.1-12 0.7 0 0.6 0.5 1.7 1 2.5 0.7 1.1 0.2 2.2-1.8 4-1.5 1.4-3.7 4-4.9 5.8-1.3 1.8-1.9 3.4-1.3 3.7 0.6 0.3 1 1.8 1 3.5 0 1.8 0.9 3.8 2.3 5.1 1.8 1.6 2.2 3 2.1 7.2-0.1 2.9-1 6.8-1.9 8.7-1.3 2.7-1.6 4.9-1.1 9.8 0.5 4.7 0.3 6.1-0.6 5.9-0.7-0.2-1.4-1.8-1.5-3.5-0.3-2.8-0.6-3.2-3-2.9-2.3 0.2-2.8 0.7-2.8 2.9 0 1.5-0.4 3.2-1 3.8-0.5 0.6-2.1 1-3.5 0.8-2.1-0.2-2.5-0.9-2.8-3.8-0.1-1.9 0.2-3.9 0.8-4.5 0.6-0.6 1-2.1 1-3.5 0-1.4-0.2-3.5-0.5-4.7-0.3-1.3-1.1-2.3-1.7-2.3-0.7 0-2.4-2.1-3.7-4.7-1.3-2.7-2.1-5.7-1.8-6.8 0.3-1.1 0.1-3.6-0.3-5.5-0.5-2.3-0.4-3.9 0.3-4.7 0.6-0.7 1.8-1.3 2.7-1.3 0.8 0.1 2 0.8 2.7 1.8 1.1 1.5 1.3 1.4 1.4-0.8 0.1-1.4 0.2-2.9 0.3-3.5 0-0.6 0.6-1.9 1.2-3 0.6-1.1 1.4-3.5 1.8-5.2 0.3-2 0.1-4.1-0.6-5.3-1.2-1.8-2.4-2-11.5-2-9.9 0-10.3 0.1-10.7 2.3-0.3 1.2-0.7 4.8-1 8-0.5 4.2-0.3 5.7 0.7 5.7 0.7 0 1.5 2.2 1.9 5.7 0.4 3.2 1.4 6.4 2.3 7.1 1.1 0.8 1.3 2.1 0.8 4.5-0.3 1.7-1.1 3.5-1.7 3.8-0.6 0.4-1.4 2.3-1.8 4.3-0.5 2-1.5 3.9-2.4 4.4-1.1 0.5-1.4 1.5-1 3.2 0.3 1.4 0 3.1-0.6 3.7-0.7 0.7-2.6 1.3-4.2 1.3-1.7 0-3.8-0.4-4.6-0.9-1.3-0.8-1.2-1.4 0.7-4.2 1.3-2.1 2-4.4 1.7-6.1-0.2-1.6-0.8-2.8-1.4-2.8-0.5 0-1-1.7-1-3.7 0-2.5-1-5.1-2.8-7.6-2.1-3-2.4-4-1.5-5 1-0.9 1.4-0.8 1.8 0.6 0.3 0.9 1.2 1.7 2 1.7 0.8 0 1.5-0.8 1.5-1.7 0-1 0.4-2.2 1-2.8 0.7-0.7 0.6-2.2-0.5-4.7-1.2-3.1-1.3-4-0.2-5 0.7-0.7 1.4-2.8 1.5-4.5 0.1-1.8-0.2-4.2-0.8-5.3-0.9-1.7-1.9-2-8.2-1.9-4 0.1-6.5 0.3-5.5 0.5 1.5 0.3 1.7 1.4 1.5 7.7-0.2 5.4 0.1 7.9 1.2 9.2 1.3 1.5 1.3 1.9-0.5 3.2-1.1 0.8-2.1 2.8-2.3 4.6-0.1 1.8-0.5 5.2-0.9 7.7-0.3 2.5-0.7 4.9-0.8 5.5 0 0.6-0.5 2.3-1.1 3.9-0.5 1.6-1.7 3.3-2.6 3.7-1 0.5-1.8 1.8-1.8 2.9 0 1.1-0.4 2-1 2-0.5 0-1.2 0.9-1.5 2-0.3 1.1-0.8 2-1.2 2-0.5 0-1.9-1.4-3.3-3.1-1.5-1.9-2.1-3.4-1.5-3.8 0.6-0.3 1.8-1.7 2.6-3.1 1.1-1.7 1.4-3.2 0.8-4.7-0.5-1.3-1.3-2.3-1.9-2.3-0.5 0-0.9-1.7-0.8-3.7 0-2.1-0.6-5.5-1.5-7.5-1-2.1-1.2-3.8-0.7-3.8 0.6 0 1.2 0.4 1.5 1 0.3 0.6 1.2 1 2 1 0.8 0 1.5-0.8 1.5-1.7-0.1-1 0.6-2.4 1.5-3 1.2-1 1.3-1.8 0.4-3.5-0.7-1.3-0.9-3.8-0.5-5.8 0.4-1.9 0.9-5.3 1.7-11.5l-5.3-0.7c-2.9-0.4-7.2-0.8-9.5-0.8-4.3 0-4.3 0-5.3 4.5-0.5 2.5-1 6.6-1 9.3 0 2.6 0.5 5.1 1.1 5.7 0.6 0.6 0.8 2.3 0.3 4.5-0.4 1.9-0.8 3.7-0.9 4-0.1 0.3-0.4 2.1-0.8 4-0.4 1.9-0.9 5.3-1.2 7.5-0.2 2.2-1.2 4.9-2.2 6-1 1.1-2.7 2.9-3.8 4.1-1.8 1.8-2.3 1.9-4.2 0.7-1.7-1-2.1-1.8-1.5-3.3 0.4-1.2 1.5-2.3 2.5-2.5 1.1-0.4 1.5-1.1 1-2.2-0.3-1-1.1-2.1-1.7-2.5-0.6-0.4-1.2-3.3-1.2-6.5-0.1-3.2-0.2-6.2-0.3-6.8 0-0.6-1.1 0.3-2.3 2-1.3 1.6-2.3 3.4-2.3 3.9 0 0.6-1.8 1.4-4 1.7-2.2 0.4-5.2 1.2-6.7 1.8-2 0.8-2.8 1.8-2.8 3.6 0 1.4-0.6 2.6-1.2 2.8-0.7 0.2-2.3 0.2-3.5 0-2.1-0.3-2.3-0.7-2-6 0.1-3.2-0.3-8.5-1-11.8-0.7-3.3-1.3-7-1.3-8.2 0-1.6 0.6-2.3 2-2.3 1.1 0 2-0.1 2.1-0.2 0-0.2 0.2-2.3 0.6-4.8 0.3-2.5 1.3-5.4 2.4-6.5 1-1.1 1.9-2.9 1.9-4 0-1.6-0.9-2.2-4.7-2.9-2.7-0.4-7.3-1-10.3-1.3-3-0.3-7.2-0.6-9.4-0.6-3.8-0.2-3.9-0.2-5.2 4.8-0.7 2.8-1.3 6-1.4 7.3 0 1.2 0.5 2.2 1 2.2 0.6 0 1.2 1.1 1.5 2.5 0.3 1.4 1 2.5 1.5 2.5 0.6 0 1-0.6 1-1.2 0-0.7 0.5-2 1-2.8 0.9-1.3 1.1-1.3 2 0 0.6 0.9 0.7 3.4 0.3 6-0.4 2.5-1.7 7-2.9 10-1.3 3-2.9 5.7-3.6 5.9-0.7 0.2-1.9 0.9-2.6 1.5-0.8 0.6-0.9 1.3-0.3 1.6 0.5 0.3-0.1 1.8-3.8 6.5l-2.1-2c-1.1-1.1-1.8-2.6-1.5-3.2 0.3-0.7 0.3-2.4 0-3.8-0.3-1.4-0.9-2.5-1.5-2.5-0.5 0-1 1.8-1 4 0 2.2-0.4 4-1 4-0.5 0-1-0.9-1-2 0-1.1-0.2-2.7-0.5-3.5-0.3-0.8-0.9-1.5-1.5-1.5-0.5 0-0.7 0.5-0.2 1.1 0.4 0.6 0 1.5-0.8 2-0.8 0.5-2.5 0.9-3.7 0.9-1.3 0-2.3-0.6-2.4-1.2 0-0.7-0.2-2.1-0.5-3-0.2-1 0.1-1.8 0.6-1.8 0.6 0 1-0.7 1-1.5 0-0.8-1-2.4-2.2-3.5-1.3-1-2.9-1.9-3.5-2-0.7 0-1.3-0.8-1.4-1.7 0-1.1-0.6-0.5-1.5 1.5-0.8 1.7-2.2 3.5-3.1 3.9-1 0.4-2.5 1.4-3.3 2.2-1.1 1.1-1.2 1.5-0.2 1.8 0.8 0.2 0.5 1.3-1 3.7-2.2 3.2-2.4 3.3-5 2-2.6-1.3-2.8-1.9-2.6-6.6 0.1-4-0.4-6.1-2.2-8.8-1.9-2.9-2.2-4.3-1.7-8 0.3-2.5 0.9-6.5 1.3-9 0.3-2.5 0.9-4.8 1.3-5.2 0.3-0.5 2-1 3.6-1.4 1.7-0.3 3.3-0.8 3.7-1.2 0.4-0.4 0.4-1.8 0-3.1-0.7-2.2-1-2.3-8.4-2-4.2 0.2-7.4 0.1-7.2-0.3 0.2-0.5-1.3-0.8-3.3-0.8-2.8 0-3.4 0.3-2.3 1 1.3 0.8 1.2 1-0.2 1-1.4 0-1.9 1.1-2.4 4.8-0.3 3.3-0.1 4.9 0.8 5.4 0.7 0.4 1.5 1.6 1.7 2.5 0.1 1 0.7 4.7 1.1 8.3 0.4 3.6 1.3 8.2 1.9 10.3 0.9 2.9 0.8 3.8-0.1 4.1-0.7 0.2-2.4 0.7-3.8 1-2.2 0.5-2.5 1-2.2 4.1 0.2 3.2 0 3.4-2 2.9-1.3-0.3-3.3-0.1-4.5 0.5-1.8 0.8-2.5 0.8-3-0.1-0.3-0.7-0.7-2.4-0.9-3.8-0.1-1.4 0.2-2.9 0.7-3.5 0.4-0.6 0.6-2 0.3-3.2-0.2-1.5-1.1-2.3-2.4-2.3-1.1 0-1.8 0.4-1.5 1 0.3 0.6 0.1 1-0.5 1-0.5 0-0.9 1-0.7 2.1 0.1 1.2-0.4 2.3-1 2.5-0.7 0.2-1.3-0.3-1.3-1.1 0-0.8-0.5-1.8-1.1-2.2-0.6-0.5-1.5-0.1-1.9 0.7-0.5 0.8-0.6 2.1-0.4 2.8 0.2 0.6-0.6 1.5-1.8 1.8-1.3 0.4-3.1 0.4-4 0-1.2-0.4-1.8-1.6-1.8-3.6q0-3 1.5-3c1.2 0 1.3-0.5 0.5-2.5-0.5-1.4-1-5.9-1-10 0-5 0.5-7.9 1.3-8.7 0.8-0.7 1.4-2.9 1.5-4.8 0.1-1.9 0.5-3.7 1-4 0.5-0.3 1.1-1.6 1.5-3 0.3-1.4 0.2-3.3-0.4-4.2-0.7-1.5-2.3-1.8-7.9-1.8-3.8 0-7.2 0.4-7.5 1-0.3 0.6-0.3 2.6 0 4.5 0.5 3.5 0.5 3.5 3.3 2 1.5-0.8 3.7-1.5 5-1.5 1.2 0 2.4 0.6 2.6 1.3 0.3 0.6-0.2 3.5-1 6.2-0.8 2.8-1.4 6.2-1.4 7.8 0 1.5-0.4 2.9-1 3.2-0.5 0.3-1 1.4-1 2.5 0 1.1-0.3 2-0.7 2-0.5 0-1.8 0.8-3.1 1.7-1.2 1-3.9 3.3-6 5-2 1.8-4.3 3.3-4.9 3.3-0.7 0-1.6-1.2-2-2.7-0.3-1.6-0.7-3-0.8-3.3 0-0.3-0.4-1.5-0.8-2.7-0.4-1.3-1.1-2.3-1.7-2.3-0.5 0-1 1.1-1 2.5 0 2-0.4 2.4-1.7 1.8-1.1-0.4-1.3-0.8-0.5-1 0.6-0.2 1.2-0.6 1.2-1 0-0.5-0.9-0.8-2-0.8-1.1 0-1.8 0.4-1.6 1 0.3 0.6 0.3 1.2 0 1.5-0.3 0.3-1.8-0.6-3.4-2-2.6-2.1-3-3.2-3-7.2 0-4.5-0.2-4.8-2.5-4.8-1.4 0-3.5-0.5-4.7-1-1.3-0.6-2.8-2-3.5-3.3-0.7-1.2-1.9-4-2.8-6.2-0.8-2.2-1.5-4.8-1.5-5.7 0-1.1-1-2.1-2.7-2.5-1.6-0.3-3.2-1.3-3.8-2.1-0.5-0.7-2.1-1.5-3.5-1.7-1.4-0.1-6.5-1.3-11.5-2.5-5.4-1.3-10.3-2-12.2-1.6-1.8 0.3-3.9 0.2-4.5-0.3-0.7-0.5-2.9-1.3-8.3-2.7l-0.5-98.4 3.5 1c1.9 0.6 4.1 0.7 4.8 0.3 0.6-0.4 2.6-0.8 4.2-0.9 1.7-0.1 4 0.2 5.3 0.7 1.2 0.5 3.6 0.7 5.2 0.4 1.7-0.3 2.8-0.8 2.6-1.2-0.2-0.5 1.7-0.8 4.3-0.9 2.5 0 8.4-0.3 13.1-0.6 4.7-0.3 8.8-0.6 9.3-0.7 0.4-0.1 0.4-2 0.1-4.3-0.4-2.4-1.1-5.1-1.5-6-0.5-1-1.6-1.8-2.4-1.8-1 0-1.5-1.1-1.5-3.5 0-2.2 0.5-3.7 1.5-4 0.8-0.3 1.5-1.3 1.5-2.2-0.1-1 0.8-3 2-4.5 1.1-1.6 2.7-2.8 3.5-2.8 0.8 0 1.7-1 1.9-2.2 0.4-1.9 1-2.2 3-1.8 1.4 0.3 2.6 0.1 2.6-0.5 0-0.5 1.7-2.1 7.5-5.8l5 6.3 1.5-2.5c1.3-2.1 1.3-2.6 0-4-1.3-1.5-1.3-1.8 0-2.6 0.8-0.5 2.3-0.9 3.3-0.9 0.9 0 2.4 1.4 3.2 3 0.8 1.7 2.2 3 3 3 0.8 0 3.3 2.1 5.5 4.8 2.9 3.3 4.1 5.6 4 7.7 0 1.7 0.7 4.8 1.5 7 0.9 2.2 1.4 4.6 1.1 5.3-0.4 0.9-1.5 1-3.8 0.3-1.8-0.5-4-1.2-4.8-1.5-0.8-0.4-1.8-0.1-2.1 0.6-0.3 0.7-0.6 3.3-0.8 5.8-0.1 2.8 0.3 4.8 1.1 5.2 0.7 0.4 3.6 0.8 6.3 0.8 3.3 0 5.8-0.7 10-3.8l-1.9-4.8c-1-2.7-2-6.6-2.2-8.6-0.2-2.2-0.9-3.8-1.6-3.8-1 0-1.1-1.2-0.6-4.7 0.3-2.7 0.2-5.5-0.3-6.3-0.5-0.9-0.3-2.2 0.5-3.5 1.2-1.7 1.2-2.4-0.5-4.7-1.7-2.5-1.8-2.9-0.3-4.3 0.8-0.8 2-1.5 2.5-1.5 0.5 0 1.8 0.5 2.9 1 1.1 0.6 1.8 1.6 1.5 2.5-0.3 0.9 0.4 1.9 1.5 2.5 1.8 0.9 2 0.7 2-2.5 0-1.9 0.5-3.5 1-3.5 0.6 0 1 1.8 1 4 0 2.3 0.5 4.2 1.3 4.5 0.7 0.3 2 0 3-0.7 1-0.7 1.8-2.1 1.7-3 0-1-0.4-1.8-1-1.8-0.5 0-1-0.3-1-0.7 0-0.5 0.6-1.7 1.4-2.8 1.2-1.8 1.7-1.8 4-0.7 1.4 0.6 2.6 1.8 2.6 2.5-0.1 0.6 0.7 2 1.7 2.9 1 1 3.2 2.2 4.8 2.6 2.2 0.7 2.9 1.4 2.7 2.8-0.2 1-0.9 2.5-1.5 3.3-0.7 0.8-1.2 3.6-1.2 6.3 0 4.1-0.4 5.3-2.5 7-2.3 1.8-2.4 2.4-1.7 7.1 0.4 2.9 1.2 6.6 2.7 11.2l9 0.3c7.4 0.2 9.4-0.1 11.1-1.5 1.1-1 1.9-2.7 1.7-3.7-0.2-1.6-1.1-2-4.3-2-3.5-0.1-4-0.4-4.3-2.6-0.1-1.4-0.7-5-1.3-8-0.8-3.9-0.8-6.5-0.1-9 0.6-1.9 1.8-3.8 2.6-4.2 1.3-0.6 1.5-2.2 1.4-7.3-0.3-5.5 0-6.6 1.5-7 0.9-0.3 2.2-0.3 2.7 0 0.6 0.3 1.7 2.1 2.5 4 0.8 1.9 2.6 4.1 4 4.8 1.4 0.6 2.5 1.5 2.5 2 0 0.4 0 0.9 0 1.2 0 0.3 0.8 1.3 1.8 2.3 1.4 1.5 2.2 1.6 4.5 0.7 1.7-0.6 3-1.9 3.3-3.5 0.4-1.5-0.1-3.2-1-4.2-1.5-1.7-1.4-2 0.3-3.8 1.7-1.7 2.3-1.8 4.5-0.7 2 0.9 2.5 1.8 2.1 3.5-0.3 1.2 0 2.2 0.5 2.2 0.6 0 1.1-1.9 1.1-4.2 0.1-2.4 0.1-4.6 0-5 0-0.5 0.4-0.8 0.9-0.8 0.6 0 1.1 2.8 1.3 6.3 0.2 5.9 0.3 6.1 1.6 3.7 0.8-1.4 1.5-4 1.5-5.9 0.1-2.1 0.8-3.8 1.9-4.5 1.5-0.9 2.1-0.7 3.3 0.9 0.8 1.1 1.2 2.6 0.9 3.3-0.3 0.6 0.7 1.8 2.1 2.5 1.7 0.8 3.4 3.2 5.1 7.2 1.4 3.3 2.9 7.6 3.3 9.5 0.5 2 0.5 4.2-0.1 5.3-0.5 0.9-1.3 1.5-1.9 1.2-0.5-0.3-1-2-1-3.7 0.1-3-0.1-3.2-1.5-1.8-0.9 0.8-1.6 2.2-1.5 3 0 0.8-0.5 2.1-1.2 2.8-1.1 1-1 2.2 0.1 6.5 0.7 2.8 1.4 6.6 1.5 8.4 0.1 3.2 0.1 3.2 4.6 2.6 2.5-0.3 4.9-1 5.5-1.4 0.5-0.5 2.4-0.9 4.2-0.9 2 0 3.5-0.6 3.8-1.5 0.3-1 1.3-1.3 2.8-1 1.2 0.2 3.4 0.7 5 1 1.5 0.3 2.7 0.1 2.7-0.5 0-0.5-0.5-2.2-1.1-3.7-0.6-1.6-1.5-3-2-3.3-0.6-0.3-1.3-2.6-1.7-5.3-0.4-2.6-1-4.7-1.4-4.7-0.5 0-0.9 0.5-1 1.2-0.2 0.6-0.7 0.9-1.3 0.6-0.7-0.4-0.6-3.5 0.3-9 0.7-4.6 1.3-9.6 1.4-11.3 0-1.6-0.2-4-0.6-5.2-0.5-1.9-0.1-2.4 2.2-2.9 1.5-0.3 3-0.2 3.4 0.3 0.4 0.4 0.9 1.8 1 3 0.2 1.2 1.2 2.9 2.3 3.7 1.1 0.9 3.7 1.6 5.8 1.6 3.1 0 4.2 0.6 7.1 4.3 1.9 2.3 3.8 3.8 4.3 3.3 0.4-0.5 0.4-1-0.2-1.2-0.5-0.3-0.9-1.9-0.7-3.7 0.2-1.7 0.9-4.2 1.5-5.4 1-2 0.9-2.6-1.3-4.8-2.2-2.2-2.3-2.6-1-4 0.8-0.9 2.5-1.6 3.8-1.5 1.2 0 2.5 0.8 2.9 1.8 0.3 0.9 0.6 1.9 0.5 2.2-0.1 0.3 0.7 1.4 1.9 2.5 1.3 1.3 2 3.3 1.9 5.8 0 2 0.9 6.1 2.1 9 1.5 4 1.8 5.8 1 7.7-0.6 1.4-1.1 4.1-1.1 6 0 1.9 0.5 5.9 1.2 8.8 1.2 4.9 1.5 5.2 4.3 5.2 1.7 0 5.8 0.3 15.6 1.5l-0.3-5.3c-0.2-3-0.7-5.7-1.2-6-0.5-0.4-0.6-2.6-0.2-4.9 0.5-3.4 0.3-4.3-0.9-4.3-0.8 0-1.5-0.7-1.5-1.5 0-1.1-0.7-1.4-2.5-1-1.4 0.3-2.5 0.2-2.5-0.2-0.1-0.5 0.8-1.9 1.8-3.3 1.5-1.9 1.8-3.5 1.3-6.7-0.4-3.1-0.2-4.3 0.7-4.3 0.6 0 1.4-1.1 1.7-2.5 0.4-1.8-0.2-3.2-2-5-2.1-2.1-2.3-2.8-1.3-4.5 0.7-1.1 2.1-2 3.2-2z"/>
		<path id="Path 1" class="s1" d="m0 0h512v61.5h-20.5c-19.2 0-20.5-0.1-21.9-2-0.9-1.1-1.6-2.3-1.6-2.8 0-0.4 0.6-0.7 1.2-0.7 0.9 0 1.1-0.8 0.5-3-0.4-1.9-0.1-4.9 0.9-8.3 1.5-4.9 1.5-5.4-0.2-8.5-1.1-1.7-2.2-3.2-2.7-3.2-0.4 0-0.4-1.8 0-4 0.6-3.2 0.5-4.1-0.7-4.2-0.8 0-2.2-0.2-3-0.3-0.8 0-2.3-0.4-3.3-0.8-0.9-0.4-2.5-1-3.5-1.3-1.6-0.5-1.6-0.6 0-1.5 1.7-0.8 1.6-1.1-0.5-3.4-1.2-1.4-2.8-2.5-3.5-2.5-0.6 0-2.4 1.1-4 2.4-2.4 2.2-2.5 2.5-1 3 1 0.3 1.8 1.3 1.8 2.1 0 0.8 0.6 1.8 1.4 2.3 1.2 0.6 1.1 1.3-0.5 4.7-1.1 2.2-1.9 5.4-1.9 7 0 1.6 0.5 3.5 1.1 4 0.6 0.6 0.8 1.6 0.3 2.5-0.4 0.8-0.9 3.2-1.1 5.3-0.2 2-0.7 4.6-1.3 5.7-0.6 1.1-1 3.1-1 4.5 0 2.3-0.4 2.5-4.8 2.6-2.6 0.1-7.4 0.1-10.7 0.1-3.5 0-6.3 0.5-6.6 1.2-0.4 0.6-1.2-0.5-1.9-2.4-0.6-1.9-1.6-4.7-2.1-6.2-0.7-2.2-0.5-3 0.8-3.9 1.1-0.7 1.7-2.1 1.5-3.5-0.1-1.7 0.3-2.4 1.5-2.4 1.6 0.1 1.6-0.1 0.3-1.6-1.3-1.5-1.3-1.8 0-2.2 1.3-0.4 1.3-0.5 0-1.3q-1.5-0.9-0.3-0.9c0.7 0 1.3-1.1 1.3-2.5 0-1.4-1-3.3-2.3-4.3-1.2-1-2.8-2.8-3.5-4-0.6-1.2-1.2-3-1.2-3.9 0-1 0.7-3 1.5-4.5 0.8-1.6 1.2-3 0.7-3.3-0.4-0.3-1.3-0.5-2-0.5-0.6 0-1.4 1-2.1 4.5l-2.3-2.3c-1.7-1.7-3.2-2.2-5.8-2-2.4 0.2-3.6 0.8-3.7 2.1-0.2 0.9 0.8 2.9 2.2 4.5 1.4 1.5 2.6 3.3 2.5 4 0 0.6-0.7 1.5-1.5 2-1 0.5-1.6 3.1-2 8.2-0.4 5.1-0.2 6.9 0.4 5.5 0.8-1.7 1-1.5 1 1.5 0 1.9-0.3 4.2-0.8 5-0.5 0.8-1.4 1.2-2 0.8-0.7-0.5-1.3 0.2-1.6 2-0.2 1.5-0.7 4.4-1 6.5-0.4 3.2-0.8 3.7-3.3 3.7-1.5 0-5.7-0.3-9.5-0.8-6.3-0.7-6.8-0.9-7.7-3.7-0.6-1.6-1-4-1-5.2 0-1.3 0.4-2.1 1-1.8 0.6 0.3 1.2-0.2 1.5-1 0.3-0.8 1.2-1.5 2-1.5 1.1 0 1.4-0.8 1-3.5-0.3-1.9 0.1-4.6 0.7-5.9 1.1-2.1 1-2.7-0.5-4-0.9-0.9-1.7-2.1-1.7-2.6 0-0.5 0.4-1.2 1-1.5 0.6-0.3 1-1.3 1-2.2 0.1-1-0.9-2.7-2-3.8-1.1-1.1-2.1-2.6-2-3.2 0-0.7-0.9-1.3-2-1.3-1.1 0-2.7-0.2-3.5-0.5-0.8-0.3-1.3-1.1-1-1.7 0.3-0.7-0.3-2.5-1.5-4-1.4-2-2.9-2.8-5-2.8-1.6 0-3.3 0.6-3.6 1.3-0.4 0.6 0.2 2.9 1.2 5 1.1 2.1 2.5 3.7 3.1 3.7 0.7 0 1.3 0.5 1.3 1 0 0.6-0.8 1.8-1.8 2.8-1.1 0.9-2.1 2.4-2.5 3.2-0.3 0.8-0.1 4.7 0.5 8.5 0.5 3.9 1.4 7.5 1.8 8 0.4 0.5 0.4 1.9-0.1 3-0.4 1.1-0.8 2.8-0.8 3.8-0.1 0.9 0.7 2.5 1.6 3.5 1 0.9 2.4 3 3 4.5 1 2.2 1 2.7 0 2.7-0.6 0-2.1-1-3.2-2.1-1.9-1.9-2.4-2-7.5-0.9-3 0.7-8.8 1.1-12.8 0.9-4.1-0.2-7.6-0.1-7.8 0.4-0.2 0.4-0.8 0.7-1.4 0.7-0.6 0-1-1.6-1-3.5 0-1.9-0.6-3.8-1.3-4.2-0.7-0.5-2.7-2.7-4.5-5-3.2-4.3-3.2-4.3-1.8-9.5 0.8-3.4 1.9-5.4 3-5.5 0.9-0.2 1.6-0.9 1.5-1.5 0-0.7-0.4-2.2-0.8-3.3-0.5-1.1-0.5-2.6 0-3.2 0.6-0.8 0.2-2.6-1.1-4.8-1.4-2.4-2-5.3-2-9.5 0-3.3-0.4-6-1-6-0.6 0-1 1.4-1 3 0 1.7-0.2 3-0.5 3-0.3 0-1.6-0.4-3-1-1.7-0.7-2.3-1.5-2-2.7 0.3-1-0.1-2.4-1-3-0.8-0.7-2.6-1.1-4-0.8-1.4 0.3-2.7 1.2-3 2-0.3 0.8 0.3 2.7 1.4 4.3 1.4 2.1 1.7 3.8 1.2 7.7-0.4 3.2-1.1 4.9-1.9 4.8-0.7-0.2-1.9 1.4-2.8 3.5-0.8 2-1.6 6.5-1.7 9.9-0.2 4.8 0.2 6.4 1.3 6.8 0.8 0.3 2.3 0.3 3.2 0 1-0.3 2-1.3 2.2-2.2 0.2-1 0.4-0.2 0.5 1.7 0 1.9 0.7 4.9 1.6 6.5 0.8 1.7 1.5 4 1.5 5.3 0 1.2-0.6 2.4-1.3 2.6-0.6 0.2-3.9 0.1-7.2-0.1-3.3-0.3-6.7-0.5-7.5-0.6-0.8 0-2.5 0.2-3.8 0.6-1.8 0.6-2.3 0.3-2.6-1.5-0.2-1.3-0.8-4.7-1.2-7.7-0.7-3.9-0.6-5.7 0.3-6.7 0.7-0.8 1.6-3.3 1.9-5.6 0.4-2.4 1.3-5.2 1.9-6.3 1.1-1.7 0.8-2.9-1.7-8-1.7-3.3-3.9-6.9-5-8-1.4-1.4-1.6-2.3-0.9-3 0.8-0.7 0.6-1.5-0.7-2.8-0.9-1-2.7-1.8-4-1.7-1.3 0-2.7 0.9-3.3 2.3-0.9 1.6-0.9 2.3 0 2.5 0.6 0.1 1.1 0.9 1.1 1.7 0 0.8 0.4 1.5 1 1.5 0.6 0 0.7 1 0.4 2.3-0.4 1.2-1.1 2.3-1.5 2.5-0.5 0.1-0.9 2.1-0.9 4.5 0 2.3-0.7 5.3-1.5 6.7-0.8 1.4-1.8 3.1-2.2 3.8-0.4 0.7-0.4 1.6 0 2 0.5 0.4 1.3-0.1 1.8-1 0.5-1 1.2-1.8 1.6-1.8 0.5-0.1 1.4 1.2 2.1 2.7 1 2.1 1.1 3.4 0.3 5.1-0.8 1.7-0.8 2.8 0.4 5 0.8 1.5 1.5 3.9 1.5 5.5 0 1.8-0.8 3.2-2.5 4.2-2.2 1.3-2.7 1.3-4.8 0-1.2-0.8-2.6-1.2-3-0.8-0.5 0.5-1.6 0.8-2.5 0.8-0.9 0-2-0.5-2.4-1-0.4-0.5-0.8-1.6-0.8-2.2 0-0.7 0.9-1.3 2-1.3 1.7 0 1.9-0.5 1.5-3-0.3-1.6-0.7-4.5-1-6.2-0.3-2.3 0.1-3.8 1.3-5.1 1.6-1.6 1.6-1.8-0.4-4-1.3-1.3-2.6-4.7-3.3-8.7-0.7-3.6-1.6-7.8-2.1-9.5-0.5-1.6-2.2-3.8-3.7-4.8-2.2-1.5-2.5-2.1-1.6-3 1-0.9 0.9-1.5-0.5-2.4-0.9-0.7-2.6-1.3-3.7-1.3-1.1 0-2.6 0.9-3.3 2-1 1.7-0.9 2.3 1.3 4.5 1.8 1.8 2.4 3.2 2 5-0.3 1.4-1.1 2.5-1.8 2.5-0.8 0-1 1.2-0.6 4.3 0.5 3.2 0.2 4.8-1.3 6.7-1 1.4-1.9 2.8-1.8 3.3 0 0.4 1.1 0.5 2.5 0.2 1.8-0.4 2.5-0.1 2.5 1 0 0.8 0.7 1.5 1.5 1.5 1.2 0 1.4 0.9 0.9 4.3-0.4 2.3-0.3 4.5 0.2 4.9 0.5 0.3 1 3 1.5 11.3l-6.3-0.8c-3.5-0.4-7.7-0.7-9.3-0.7-2.8 0-3.1-0.3-4.3-5.2-0.7-2.9-1.2-6.9-1.2-8.8 0-1.9 0.5-4.6 1.1-6 0.8-1.9 0.5-3.7-1-7.7-1.2-2.9-2.1-7-2.1-9 0.1-2.5-0.6-4.5-1.9-5.8-1.2-1.1-2-2.2-1.9-2.5 0.1-0.3-0.2-1.3-0.5-2.2-0.4-1-1.7-1.8-3-1.8-1.2-0.1-2.9 0.6-3.7 1.5-1.3 1.4-1.2 1.8 1 4 2.2 2.2 2.3 2.8 1.3 4.8-0.6 1.2-1.3 3.7-1.5 5.4-0.2 1.8 0.1 3.4 0.7 3.7 0.6 0.2 0.6 0.7 0.2 1.2-0.5 0.5-2.4-1-4.3-3.3-2.9-3.7-4-4.3-7.2-4.3-2 0-4.6-0.7-5.7-1.6-1.1-0.8-2.1-2.5-2.3-3.7-0.1-1.2-0.6-2.6-1-3-0.4-0.5-1.9-0.6-3.5-0.3-2.2 0.5-2.6 1-2.1 2.9 0.4 1.2 0.6 3.6 0.6 5.2-0.1 1.7-0.7 6.7-1.4 11.3-0.9 5.5-1 8.6-0.3 9 0.6 0.3 1.1 0 1.2-0.6 0.2-0.7 0.6-1.2 1-1.2 0.5 0 1.1 2.1 1.5 4.7 0.4 2.7 1.1 5 1.7 5.3 0.5 0.3 1.4 1.7 2 3.3 0.6 1.5 1.1 3.2 1.1 3.7 0 0.5-1.2 0.8-2.8 0.5-1.5-0.3-3.7-0.8-5-1-1.4-0.3-2.4 0-2.7 1-0.4 1.1-1.9 1.4-6.4 1.3-3.3-0.2-5.7-0.6-5.5-1 0.2-0.5-1.2-1.4-3.1-2-2.9-1.1-3.6-2-4.6-5.8-0.9-3.4-0.9-4.9 0-6.2 0.6-1 1.1-2.4 1.1-3-0.1-0.7 0.6-2 1.5-2.8 1.4-1.4 1.6-1.2 1.5 1.8 0 1.7 0.4 3.4 1 3.7 0.6 0.3 1.4-0.3 1.9-1.2 0.6-1.1 0.6-3.3 0.1-5.3-0.4-1.9-1.9-6.2-3.3-9.5-1.7-4-3.4-6.4-5.1-7.3-1.4-0.6-2.4-1.8-2.1-2.5 0.3-0.6-0.1-2.1-0.9-3.2-1.2-1.6-1.8-1.8-3.3-0.9-1.1 0.7-1.8 2.4-1.8 4.5-0.1 1.9-0.6 4.3-1.3 5.4-1 1.7-1.1 1.1-1.2-3.8 0-4.4-0.3-5.7-1.5-5.7-0.8 0-1.4 0.3-1.4 0.7 0.1 0.5 0.1 2.7 0 5 0 2.4-0.5 4.3-1.1 4.3-0.6 0-0.8-1-0.5-2.3 0.4-1.6-0.2-2.5-2-3.5-2.2-1-2.8-0.9-4.5 0.8-1.8 1.8-1.9 2.1-0.4 3.8 0.9 1 1.4 2.7 1 4.2-0.3 1.6-1.6 2.9-3.3 3.5-2.3 0.9-3.1 0.8-4.6-0.7-0.9-1-1.7-2-1.7-2.3 0-0.3 0-0.8 0-1.3 0-0.4-1.1-1.3-2.5-2-1.4-0.6-3.2-2.8-4-4.7-0.8-1.9-1.9-3.7-2.5-4-0.6-0.3-1.8-0.3-2.8 0-1.4 0.4-1.7 1.5-1.5 6.7 0.1 5.6-0.1 6.6-2.4 8.8-1.7 1.6-3.8 2.6-6.2 2.7-2.3 0.1-4-0.5-4.8-1.5-1-1.4-1-2 0.1-3.2 0.8-0.8 1.6-2.4 1.8-3.4 0.2-1.4-0.5-2.1-2.7-2.8-1.7-0.4-3.8-1.6-4.8-2.6-1-0.9-1.8-2.3-1.7-3 0-0.6-1.2-1.8-2.6-2.5-2.3-1-2.8-1-4 0.8-0.8 1.1-1.4 2.3-1.4 2.7 0 0.5 0.4 0.8 1 0.8 0.5 0 1 0.8 1 1.7 0.1 1-0.5 2.4-1.2 3.1-0.7 0.6-2.1 1-3.1 0.7-1.2-0.4-1.7-1.5-1.7-4.5 0-2.2-0.5-4-1-4-0.6 0-1 1.6-1 3.5 0 3.2-0.2 3.4-2 2.5-1.1-0.6-1.8-1.6-1.5-2.5 0.3-0.9-0.4-1.9-1.5-2.5-1.1-0.6-2.4-1-2.9-1-0.5 0-1.7 0.7-2.5 1.5-1.5 1.4-1.4 1.8 2.4 7.5l-2.3 1.4c-1.2 0.8-2.9 1.3-3.7 1.1-0.8-0.2-3.2-0.6-5.3-0.9-2.8-0.5-4-1.3-5.2-3.6-0.8-1.7-2.3-3-3.3-3-0.9 0-2.4 0.4-3.2 0.9-1.3 0.8-1.3 1.1 0 2.6 1.3 1.4 1.3 1.9-1.5 6.5l-5-6.3-3.7 2.4c-2.1 1.3-3.8 2.8-3.8 3.4 0 0.5-1.2 0.8-2.6 0.5-2-0.4-2.6-0.1-3 1.7-0.2 1.3-1.1 2.3-1.9 2.3-0.8 0-2.4 1.2-3.5 2.7-1.2 1.6-2.1 3.6-2 4.5 0 1-0.7 2-1.5 2.3-1.1 0.4-1.4 1.7-1.3 4.5 0.3 3.5-0.2 4.4-3.2 7-1.9 1.7-3.8 3-4.3 3-0.4 0-2.2 1.3-4 2.9-2.4 2.2-4.6 3.1-8.7 3.6-3 0.3-7.8 0.6-10.5 0.6-2.8 0.1-7.6 0.1-16.5-0.1v-29zm-0.2 156.2l3.8 1c2.2 0.5 4.5 1.4 5.1 1.9 0.7 0.5 2.8 0.6 4.5 0.3 2-0.4 6.9 0.3 12.3 1.6 4.9 1.2 10.1 2.4 11.5 2.5 1.4 0.2 2.9 1 3.5 1.7 0.5 0.8 2.2 1.8 3.6 2.2 1.4 0.3 2.7 1.4 2.7 2.4 0.1 0.9 1 3.8 2 6.4 0.9 2.6 2.4 5.4 3.2 6.2 0.8 0.9 3 2.7 4.7 4.1 1.8 1.4 3.7 2.5 4.3 2.5 0.5 0 1 1.5 1 3.3 0 2.3 0.8 4 3 6 1.6 1.5 4.1 2.7 5.5 2.7 2 0 2.5-0.5 2.5-2.5 0-1.4 0.4-2.5 1-2.5 0.5 0 1.3 1 1.7 2.3 0.4 1.2 0.8 2.4 0.8 2.7 0.1 0.3 0.5 1.7 0.8 3.3 0.4 1.5 1.3 2.7 1.9 2.7 0.7 0 3.1-1.6 5.3-3.5 2.5-2.3 5-3.5 6.7-3.5 1.6 0 3.6 0.9 4.5 2 1.2 1.4 1.8 3.8 1.8 6.8 0 4.6 0.1 4.7 3 4.6 1.7 0 3.8-0.4 4.7-0.7 1.4-0.6 2.3 0.4 4.2 4.6 1.6 3.5 2.4 7.2 2.5 11.5 0.1 4.5-0.5 7.2-1.9 10-1.1 2-3.3 6.7-8 17.2h-102l-0.1-49.9zm368.5 70.8c1.7 0 2.7 0.6 2.7 1.5 0 0.8 0.8 2.1 1.8 2.8 1 0.7 2.1 2 2.5 3 0.5 1.2 0.2 1.7-0.8 1.7-0.8 0-1.5 0.5-1.5 1 0 0.6-1.2 0.8-2.7 0.4-1.6-0.3-4.3-1-6-1.5-2.5-0.7-3.3-1.5-3.4-3.3-0.1-1.6 0.7-3 2.2-4 1.3-0.9 3.6-1.6 5.2-1.6zm36.7 20c0.6 0 2.3 1.5 3.9 3.3 1.6 1.8 2.8 3.8 2.5 4.5-0.3 0.9-3.3 1.2-10.4 1.2-7.3 0-10-0.3-10-1.2 0.1-0.7 0.7-2.2 1.5-3.3 1.1-1.4 2.1-1.8 3.5-1.2 1.3 0.5 2.5 0.2 3.5-0.8 0.9-0.9 1.7-1.1 2-0.5 0.3 0.6 1 1 1.5 1 0.6 0 1-0.7 1-1.5 0-0.8 0.5-1.5 1-1.5z"/>
		<path id="Path 2" class="s2" d="m88.7 20l4.5 0.1c3.3 0.2 4.5 0.6 4.7 1.8 0.1 0.9 0.2 4 0.2 6.8-0.1 2.9 0.3 5.3 0.9 5.3 0.5 0 1.2 1.7 1.4 3.8 0.2 2 1.2 6 2.1 8.7 1.7 4.8 1.7 5-0.1 6.3-1.1 0.7-4.8 1.2-15.4 1.2l0.2-4.7c0.1-2.7 0.4-5.4 0.7-6.1 0.3-0.7 1.3-1 2.1-0.6 0.8 0.3 3 1 4.7 1.5 2.4 0.7 3.5 0.6 3.9-0.3 0.3-0.7-0.2-3.1-1.1-5.3-0.8-2.2-1.6-5.4-1.7-7.1-0.1-1.8-1.6-4.7-3.6-7.2zm49.8 6.5l0.1 4c0 2.2 0.4 6.7 1.9 16l4 0.1c3.1 0 4 0.4 4.3 2 0.1 1-0.7 2.7-1.8 3.6-1.7 1.5-3.7 1.7-20.1 1.3l-0.9-3c-0.5-1.7-1.3-5.3-1.6-8-0.6-4.5-0.4-5.3 1.9-7.8 1.5-1.5 2.4-3.4 2.2-4.2-0.3-0.8-0.3-2.1 0-2.8 0.3-0.7 2.4-1.2 10-1.2zm-89.3 17.5c0.4 0 1.2 0.8 1.6 1.7 0.5 1 1.2 3.7 1.5 6 0.4 2.4 0.3 4.3-0.1 4.4-0.4 0.1-3.2 0.2-6.2 0.4-3.1 0.1-8.2 0.4-11.5 0.8-3.3 0.3-5.1 0.3-4 0 1.1-0.3 3.4-1.8 5.2-3.4 1.8-1.6 3.6-2.9 4-2.9 0.4 0 2.6-1.6 4.8-3.5 2.2-1.9 4.3-3.5 4.7-3.5zm140.9 4c0.5 0 2 0.6 3.3 1.2 1.4 0.7 2.2 1.7 1.8 2.3-0.5 0.5 0.1 0.6 1.5 0.2 1.3-0.4 2.5-0.3 2.8 0.3 0.2 0.5-0.1 1.2-0.8 1.4-0.7 0.2-3 0.7-5.2 1-4 0.5-4 0.5-4.2-2.9-0.1-1.9 0.3-3.5 0.8-3.5zm245.5 13.2c6-0.1 11.1 0.2 11.1 0.6 0.1 0.4-0.6 1.2-1.5 1.8-1.2 0.8-2.6 0.9-4.7 0.1-1.7-0.5-5.1-0.7-7.5-0.3-2.5 0.4-5.3 0.4-6.3 0.1-1-0.3-1.8-0.9-1.9-1.3-0.1-0.5 4.7-0.9 10.8-1zm54.1 0.2c11.6 0.1 21.5 0.4 21.9 0.8 0.5 0.5 0.6 1 0.4 1.3-0.3 0.2-6.4 0.7-13.5 1-7.2 0.3-14.8 0.5-17 0.4-2.2 0-5.6-0.1-7.5-0.2-2 0-3.9-0.6-4.3-1.1-0.4-0.6-0.8-1.4-0.9-1.7-0.1-0.3 9.3-0.5 20.9-0.5zm-394.7 106.6c5.6 0 7.1 0.3 7.9 1.7 0.5 1 0.7 2.9 0.3 4.3-0.3 1.4-1 2.7-1.4 3-0.5 0.3-1 2.1-1 4-0.1 1.9-0.8 4.1-1.5 4.7-0.9 0.9-1.3 3.8-1.3 8.8 0 4.1 0.4 8.6 1 10 0.5 1.4 0.6 2.5 0.2 2.5-0.4 0-1.3-1.4-2-3-0.8-2-2.2-3.3-4.3-3.8-1.6-0.4-3-1-3-1.5 0.1-0.4 1-0.9 2.1-1.2 1.1-0.3 2-1.3 2-2.5 0-1.1 0.4-2.2 1-2.5 0.5-0.3 1-1.7 0.9-3.3 0-1.5 0.7-5 1.5-7.7 0.8-2.8 1.2-5.6 1-6.3-0.2-0.6-1.5-1.2-2.7-1.2-1.2 0-3.5 0.7-5 1.5-2.7 1.5-2.7 1.5-3.2-2-0.3-1.9-0.3-4 0-4.5 0.3-0.6 3.7-1 7.5-1zm35.2 4c2.7 0 3.5 0.3 3 1.2-0.5 0.8-0.1 1 1.8 0.4 1.3-0.4 3.7-0.5 5.2-0.2 1.9 0.4 2.8 1.2 2.8 2.6 0 1.1-0.5 1.8-1 1.5-0.6-0.3-1.4 0.7-1.7 2.2-0.4 1.6-0.7 3.4-0.5 4 0.1 0.7-0.3 1.1-0.8 0.8-0.6-0.3-1.1 0.1-1.1 0.7 0 0.7-0.7 0.4-1.4-0.7-1-1.3-2-1.7-3-1.3-1.1 0.6-1.4 1.8-1 4.8 0.4 3.5 0.2 4-1.5 4-1.4 0-2.3-0.9-2.7-2.8-0.4-1.5-0.7-3.1-0.8-3.5 0-0.4-0.6-1.1-1.3-1.5-1-0.5-1.2-2.1-0.8-5.5 0.4-3.6 1-4.7 2.3-4.7 1.5 0 1.5-0.2 0.3-1-1.2-0.7-0.6-1 2.2-1zm187.7 15.3c4-0.1 7.1 0.3 7.9 1q1.3 1.2 0.6 4.7c-0.4 1.9-1.2 4.4-1.8 5.5-0.6 1.1-1.2 2.4-1.3 3 0 0.5-0.2 2.1-0.3 3.5-0.1 2.2-0.2 2.3-1.3 0.8-0.7-1-1.9-1.7-2.8-1.8-0.8 0-2 0.6-2.6 1.2-0.8 0.8-0.9 2.5-0.4 4.8 0.5 1.9 0.6 4.4 0.3 5.5-0.2 1.1 0.6 4.1 1.9 6.8 1.3 2.6 2.9 4.7 3.6 4.7 0.7 0 1.5 1 1.7 2.2 0.3 1.3 0.5 3.4 0.6 4.8 0 1.4-0.5 2.9-1.1 3.5-0.5 0.5-0.9 2.6-0.7 4.5 0.2 2.9 0.7 3.5 2.8 3.8 1.3 0.2 2.9-0.2 3.5-0.8 0.5-0.6 1-2.3 1-3.8 0-2.2 0.5-2.8 2.7-3 2.4-0.2 2.8 0.2 3 3 0.1 1.7 0.8 3.3 1.5 3.5 1 0.2 1.1-1.2 0.6-6-0.4-4.8-0.2-7 1.1-9.7 1-1.9 1.8-5.8 1.9-8.7 0.1-4.2-0.3-5.6-2.1-7.3-1.4-1.2-2.2-3.2-2.2-5 0-1.7-0.5-3.2-1-3.5-0.6-0.3-0.1-1.9 1.2-3.7 1.2-1.8 3.5-4.4 5-5.8 2-1.8 2.4-2.9 1.7-4-0.5-0.8-0.8-2-0.7-2.6 0.1-0.7 4.2-0.9 12-0.7 6.5 0.2 12.9 0.7 14.3 1.3 1.3 0.5 2.5 1.6 2.4 2.2 0 0.7 0.7 0.4 1.4-0.7 1.4-2 1.4-2 3.6 0 1.2 1.1 2.1 3 2.1 4.2 0 1.3-0.6 3.3-1.3 4.5-0.7 1.2-1.9 2.9-2.6 3.8-0.8 0.9-1.2 2.7-0.9 4.5 0.3 1.6-0.1 7.5-0.8 13-0.6 5.5-1.2 9.2-1.3 8.2-0.1-1.2-1-1.7-2.9-1.7-1.5 0-3.8 0.7-5 1.5-1.3 0.9-2.2 2.5-2.2 4 0 2 0.7 2.7 3.2 3.4 1.8 0.5 4.5 1.2 6 1.5 1.6 0.3 2.8 0.2 2.8-0.4 0-0.6 0.6-1 1.5-1 1.1 0 1 0.5-0.6 2.2-1.4 1.6-1.9 3.4-1.7 5.8 0.2 2.6 0.8 3.6 2.3 3.8 1.1 0.2 3.1-0.8 4.7-2.5 1.6-1.5 2.8-3.6 2.8-4.6 0-0.9 0.5-1.6 1.2-1.4 0.7 0.2 1.4 1.8 1.5 3.5 0.2 2.1 0.8 3.2 1.8 3.2 1.1 0 1.5-1.3 1.5-5.5 0-4.5 0.4-5.9 2.2-7.4 2.1-1.8 2.1-2.2 1-5.3-1-2.8-0.9-3.5 0.4-4.3 1.3-0.8 1.4-1.4 0.5-3.3-0.6-1.2-1.1-3.6-1.1-5.2 0-1.7-0.9-3.9-2-5-1.1-1.1-2.1-1.7-2.1-1.3 0 0.5-0.5-0.1-1.1-1.2-0.6-1.2-0.8-4-0.4-7 0.4-2.8 1.2-6.5 3.1-11.8l9.5 0.7c5.2 0.4 10.4 1.2 11.5 1.8 1.1 0.6 2.3 1.6 2.7 2.2 0.5 0.6 0.7 4.2 0.6 8.1-0.1 3.8 0.1 8.3 0.5 10 0.7 2.9 0.6 2.9-1-0.5-1-1.9-1.8-3.6-1.8-3.8 0-0.1-0.8 0-1.8 0.3-1.1 0.3-1.7 1.5-1.7 3 0 1.4 0.4 2.7 1 3 0.5 0.3 1 2 1 3.7 0 2.6 0.2 3 1.1 1.8 0.8-1.2 1-1.2 0.6 0.5-0.3 1.1 0 4.8 0.6 8.3 0.7 3.4 0.9 6.5 0.7 6.7-0.3 0.3 0.6 1.6 2 3 2.3 2.3 2.4 2.5 0.6 3.2-1.1 0.4-2.5 1.9-3.2 3.3-1.1 2.1-1.1 2.9 0.1 4.7 1.1 1.7 2.4 2.3 5 2.3 2.1 0 3.4-0.5 3.4-1.3 0-0.6 0.7-1.9 1.5-2.7 1.4-1.4 1.7-1.2 2.6 1.7 0.5 1.8 1.6 3.3 2.5 3.3 0.8 0 1.5-0.2 1.5-0.5 0-0.3-1-2.9-2.1-5.8-2-5-2-5.3-0.3-8.2 1-1.7 2.8-3.9 4-5 1.3-1.2 2.4-3.7 2.8-6.5 0.5-4 0.4-4.6-1.7-5.5-1.4-0.7-2.4-2.1-2.6-4-0.2-1.7-1-3.5-1.7-4-1.1-0.8-1.1-1.9 0.1-6.5 0.8-3 1.5-6.5 1.5-7.8 0-1.2 0.4-3.1 1-4.2 0.5-1.1 1.5-2 2.2-2 0.7 0 2.4 1.1 3.8 2.4 1.3 1.4 4.8 3.6 7.7 5 2.9 1.4 6.2 3.8 7.3 5.3 1.4 1.8 1.9 3.7 1.6 5.3-0.2 1.4 0.2 3.7 1 5.2 0.7 1.6 1.6 4.7 1.8 7 0.2 2.4 0.5 4.5 0.6 4.8 0.1 0.3 0.1 2.7 0 5.5 0 2.7 0.3 5.4 0.8 6 0.5 0.5 1.2 2.1 1.5 3.5 0.5 1.9 0 3.2-1.8 5.2-2.1 2.4-2.3 3.1-1.3 4.5 0.7 1 1.7 2.1 2.3 2.5 0.5 0.4 2.2 0.8 3.7 0.8 2.1 0 3.3-0.9 5.3-4 1.7-2.9 3.3-4.2 5.5-4.5 2.5-0.4 3-1 2.9-3.3 0-1.5 0.9-4.6 2-7 1.3-2.7 1.8-5 1.4-6.5-0.4-1.2-0.6-2.8-0.5-3.5 0.1-0.6-0.3-1.8-0.8-2.5-0.6-0.6-1.1-3.1-1.3-5.4-0.1-2.4 0.3-4.8 1-5.5 1.1-1.1 2.6-0.9 8.3 0.9 3.8 1.3 7.2 3 7.5 3.8 0.2 0.8 1.2 1.5 2.2 1.4 1 0 3.2 0.1 5 0.3 1.8 0.1 3.3 0.6 3.3 1 0 0.5 1.2 0.8 2.7 0.8 1.5 0 3.8 0.9 5 2 2.2 1.9 2.3 2.7 2.3 33h-50.5c-40 0-50.5-0.3-50.1-1.3 0.2-0.6-0.9-2.7-2.5-4.5-1.6-1.7-3.4-3.2-3.9-3.2-0.6 0-1 0.7-1 1.5 0 0.8-0.5 1.5-1 1.5-0.6 0-1.3-0.5-1.5-1-0.3-0.6-1-0.5-1.8 0.3-0.7 0.8-2.4 1.2-3.7 0.9-2.1-0.3-2.8 0.2-5.5 5.8h-95.5l-0.1-7.3c0-7.2 0-7.2 3.3-8.7 2.8-1.3 3.2-2 2.9-4.5-0.2-2 0.3-3.3 1.3-3.8 0.9-0.4 1.9-2.3 2.3-4.3 0.4-2 1.3-3.9 1.9-4.3 0.6-0.3 1.3-2.1 1.7-3.9 0.5-2.3 0.2-3.5-0.9-4.5-1.2-0.9-1.6-2.7-1.4-7.7 0.2-3.6 0.9-7.4 1.6-8.5 0.8-1.1 1-2.3 0.6-2.8-0.4-0.4 0.4-1.6 1.8-2.7 1.3-1.2 3-2.1 3.7-2 0.7 0 1-0.5 0.8-1-0.3-0.6-1-0.8-1.5-0.5-0.6 0.3-1.8 0.2-2.8-0.1-1.5-0.4-1.5-0.6-0.3-1.2 0.9-0.4 4.5-0.8 8-0.9zm-183.6 11c1.9 0.6 3.4 1.5 3.5 2.1 0.1 0.6 1.3 2.4 2.8 4.1 2.2 2.4 2.6 3.9 2.5 7.7-0.1 4.4 0.1 4.9 2.9 6.3 1.6 0.8 2.9 1.2 2.9 0.7 0-0.4 0.9-1.9 2-3.5 1.6-2.1 2.5-2.5 4.1-2 1.1 0.5 2.3 2.1 2.7 3.8 0.3 1.6 0.7 3.2 0.7 3.5 0.1 0.3 0.9 1.8 1.7 3.5q1.6 3 1.2 7.5c-0.3 2.5-0.6 5.1-0.7 5.7-0.1 0.7-0.5 1.3-0.9 1.3-0.4 0-0.5 0.9-0.2 2 0.2 1.1 0 2.2-0.5 2.5-0.6 0.3-0.8 0.9-0.5 1.5 0.2 0.5 0 1-0.5 1-0.6 0-1 0.9-1 2 0 1.1-0.8 3.3-3.5 8h-51.5l3.6-8.3c2-4.5 4.3-9.1 5-10.2 0.8-1.2 1.3-4.5 1.2-8.5-0.1-4.4-0.8-8.1-2.4-11.5-1.2-2.8-3-5.3-3.8-5.8-0.9-0.4-1.4-1.4-1.1-2.2 0.2-0.8 0.9-1.5 1.5-1.5 0.5 0 1.3 0.9 1.7 2 0.4 1.1 1.2 1.9 1.8 1.7 0.5-0.3 0.8-1.4 0.7-2.6-0.1-1.1 0.2-2.1 0.8-2.1 0.5 0 0.7-0.5 0.5-1-0.3-0.6 0.4-1 1.5-1 1.2 0 2.1 0.8 2.4 2.2 0.3 1.3 0.1 2.7-0.4 3.3-0.5 0.5-0.7 2.1-0.6 3.5 0.1 1.4 0.5 3.1 0.9 3.7 0.5 1 1.2 1 2.9 0.2 1.2-0.6 3.3-0.8 4.5-0.5 2.1 0.5 2.2 0.3 2-2.9-0.2-3.1 0.1-3.7 2.3-4.1 1.3-0.3 2.9-0.7 3.5-0.9 0.5-0.1 1.1-1.7 1.2-3.4 0.1-1.7-0.1-3.9-0.6-4.9-0.5-0.9-0.7-2.2-0.6-2.9 0.3-0.8 1.3-0.8 3.8 0z"/>
		<path id="Path 3" class="s3" d="m476.5 64.7c2.2 0.3 5.1 0.5 6.5 0.4 1.4 0 8.5-0.3 29-1.1l-0.5 8.3-8-0.1c-4.4-0.1-11.6-0.4-16-0.7-4.4-0.4-8.8-1.3-9.8-2.1-1-0.9-1.9-1-2.2-0.4-0.3 0.6-1.4 0.7-2.5 0.2-1.1-0.4-2.3-1.4-2.6-2.2-0.2-0.8 0.1-1.8 0.8-2.2 0.7-0.3 3-0.4 5.3-0.1zm0.1 13.8c2.1 0.2 6.6 0.9 9.9 1.5 3.3 0.7 9.8 1.8 14.5 2.5 4.7 0.8 9.1 1.4 9.8 1.5 0.6 0 1.2 0.4 1.2 1 0 0.6-1.4 0.8-3.3 0.5-1.7-0.2-5.9-0.9-9.2-1.5-3.3-0.6-8.7-1.5-12-2.1-3.3-0.5-7.7-1.3-9.9-1.7-2.1-0.4-4.1-1-4.4-1.4-0.2-0.4 1.3-0.6 3.4-0.3zm-332.4 94.6c4.2-0.1 4.9 0.2 5.3 2.2 0.2 1.2 0.1 2.5-0.3 2.9-0.4 0.4-2.1 0.9-3.7 1.2-1.7 0.4-3.3 0.9-3.6 1.4-0.4 0.4-1 2.7-1.3 5.2-0.4 2.5-1 6.5-1.3 9-0.5 3.7-0.2 5.1 1.8 7.9 1.6 2.4 1.9 3.3 0.9 2.9-0.8-0.3-2.2-1.9-3-3.6-0.9-1.8-2.7-3.4-4.8-4.1-2.5-0.8-3.3-0.8-3.6 0.2-0.2 0.6 0 1.9 0.5 2.7 0.5 0.8 0.9 2.6 0.8 4 0 2-0.3 1.7-1.4-1.5-0.8-2.2-1.5-5.7-1.5-7.7 0-3.1 0.4-3.8 2-3.8 1.7 0 1.9-0.5 1.5-4-0.4-3-0.1-4.2 1-4.7 1-0.5 2.1-0.1 3 1.2 0.8 1.1 1.5 1.4 1.5 0.8 0-0.7 0.4-1.1 1-0.8 0.5 0.3 0.9-0.1 0.8-0.7-0.1-0.7 0.1-2.5 0.5-4 0.4-1.6 1.1-2.6 1.7-2.3 0.5 0.3 1-0.4 1-1.5 0-1.1-0.8-2.2-1.8-2.4-0.9-0.2 0.4-0.4 3-0.5zm51.2 4.3c2.2 0.3 6.3 0.8 9.1 1 2.7 0.2 7.1 0.7 9.7 1.1 3.9 0.6 4.7 1.1 4.7 2.9 0 1.1-0.8 3-1.8 4.1-1.1 1.1-2.1 4-2.4 6.5-0.4 2.5-0.6 4.6-0.6 4.8-0.1 0.1-1 0.2-2.1 0.2-1.4 0-2 0.7-2 2.3 0 1.2 0.6 4.9 1.3 8.2 0.7 3.3 1.1 8.6 1 11.8-0.3 5.3-0.1 5.7 1.9 6 1.3 0.2 2.9 0.2 3.5 0 0.7-0.2 1.3-1.4 1.3-2.8 0-1.8 0.8-2.8 2.7-3.6 1.6-0.6 4.6-1.4 6.8-1.8 2.2-0.3 4-1.1 4-1.7 0-0.5 1-2.3 2.3-3.9 1.2-1.7 2.3-2.6 2.3-2 0.1 0.6 0.2 3.6 0.3 6.8 0 3.2 0.6 6.1 1.2 6.5 0.6 0.4 1.4 1.5 1.7 2.5 0.5 1.1 0.1 1.8-1.1 2.2-0.9 0.2-2 1.3-2.5 2.5-0.5 1.5-0.1 2.3 1.5 3.3 2 1.2 2.5 1.1 4.3-0.7 1.1-1.2 2.8-3 3.8-4.1 1-1.1 2-3.8 2.2-6 0.3-2.2 0.8-5.6 1.2-7.5 0.4-1.9 0.7-3.7 0.8-4 0.1-0.3 0.5-2.1 0.9-4 0.5-2.2 0.3-3.9-0.3-4.5-0.6-0.6-1.1-3.1-1.1-5.7 0-2.7 0.4-6.8 1-9.3 1-4.5 1-4.5 5.2-4.5 2.4 0 6.7 0.4 14.9 1.5l-0.5 4c-0.3 2.2-0.8 5.6-1.2 7.5-0.4 2-0.2 4.5 0.5 5.8 0.9 1.7 0.8 2.5-0.4 3.5-0.9 0.6-1.6 2-1.5 3 0 0.9-0.7 1.7-1.5 1.7-0.8 0-1.7-0.4-2-1-0.3-0.6-1-1-1.5-1-0.6 0-0.3 1.7 0.7 3.8 0.9 2 1.5 5.4 1.5 7.5-0.1 2 0.2 3.7 0.8 3.7 0.5 0 1.4 1 1.9 2.3 0.6 1.5 0.3 3-0.8 4.7-0.8 1.4-2 2.8-2.6 3.1-0.6 0.4 0 1.9 1.5 3.8 1.4 1.7 2.8 3.1 3.2 3.1 0.5 0 1-0.9 1.3-2 0.3-1.1 0.9-2 1.5-2 0.5 0 1-0.9 1-2 0-1.1 0.8-2.4 1.7-2.9 1-0.4 2.2-2.1 2.7-3.7 0.6-1.6 1.1-3.3 1.1-3.9 0.1-0.6 0.5-3 0.8-5.5 0.4-2.5 0.8-5.9 0.9-7.7 0.2-1.8 1.2-3.8 2.3-4.6 1.8-1.3 1.8-1.7 0.5-3.2-1.1-1.3-1.4-3.8-1.3-9.2 0.3-6.3 0.1-7.4-1.5-7.7-0.9-0.2 1.6-0.4 5.5-0.5 6.4-0.1 7.4 0.2 8.3 1.9 0.5 1.1 0.9 3.5 0.8 5.3-0.1 1.7-0.8 3.8-1.5 4.5-1.1 1-1 1.9 0.2 5 1.1 2.5 1.2 4 0.5 4.7-0.6 0.6-1 1.8-1 2.8 0 0.9-0.7 1.7-1.5 1.7-0.8 0-1.7-0.8-2-1.7-0.4-1.4-0.8-1.5-1.8-0.6-0.9 1-0.6 2 1.5 5 1.8 2.5 2.8 5.1 2.8 7.6 0 2 0.4 3.7 1 3.7 0.5 0 1.2 1.2 1.4 2.8 0.3 1.7-0.4 4-1.7 6.1-1.9 2.8-2 3.4-0.7 4.2 0.8 0.5 2.4 0.9 3.5 1 1.1 0 1.4 0.2 0.7 0.5-0.8 0.3-1.2 2.8-1.2 15.4h-70.5c-38.8 0-70.5-0.3-70.5-0.7 0-0.5 0.6-1.7 1.5-2.8 0.8-1.1 1.5-3 1.5-4.2 0-1.3 0.4-2.3 1-2.3 0.5 0 0.8-0.4 0.5-1-0.3-0.6-0.1-1.2 0.5-1.5 0.5-0.3 0.8-1.4 0.5-2.5-0.3-1.1-0.2-2 0.2-2 0.5 0 0.9-0.6 1-1.2 0-0.7 0.3-3.3 0.6-5.8q0.5-4.5-1.1-7.5c-0.9-1.7-1.7-3.2-1.7-3.5-0.1-0.3-0.4-2-0.8-3.7-0.6-2.7-1.3-3.4-3.7-3.8-1.7-0.3-3-0.7-3-1 0-0.3 0.6-1.1 1.2-1.8 0.7-0.7 2.1-1.6 3-2 1-0.4 2.4-2.2 3.2-3.9 0.9-2 1.5-2.6 1.5-1.5 0.1 0.9 0.7 1.7 1.3 1.7 0.7 0.1 2.3 1 3.5 2 1.3 1.1 2.3 2.7 2.3 3.5 0 0.8-0.5 1.5-1 1.5-0.6 0-0.8 0.8-0.6 1.8 0.3 0.9 0.5 2.3 0.5 3 0.1 0.6 1.1 1.2 2.3 1.2 1.3 0 3-0.4 3.8-0.9 0.8-0.5 1.2-1.4 0.7-2-0.4-0.6-0.3-1.1 0.3-1.1 0.5 0 1.2 0.7 1.5 1.5 0.3 0.8 0.5 2.4 0.5 3.5 0 1.1 0.4 2 1 2 0.5 0 1-1.8 1-4 0-2.2 0.4-4 1-4 0.5 0 1.2 1.1 1.5 2.5 0.3 1.4 0.3 3.1 0 3.8-0.3 0.6 0.4 2.1 3.6 5.2l2.4-3c1.3-1.7 1.9-3.2 1.4-3.5-0.6-0.3-0.5-1 0.3-1.6 0.7-0.6 1.9-1.3 2.6-1.5 0.7-0.2 2.3-2.9 3.6-5.9 1.2-3 2.5-7.5 2.9-10 0.4-2.6 0.3-5.1-0.3-6-0.9-1.3-1.1-1.3-2 0-0.5 0.8-1 2.1-1 2.8 0 0.6-0.5 1.2-1 1.2-0.6 0-1.2-1.1-1.5-2.5-0.3-1.4-1-2.5-1.5-2.5-0.6 0-1-1-1-2.2 0-1.3 0.5-4.1 1.1-6.3 0.6-2.2 1.4-4.6 1.6-5.4 0.4-1 1.6-1.2 4.7-0.7zm119.3 8.6c5.8 0 10.4 0.2 10.2 0.5-0.2 0.2-3.5 0.6-7.4 0.9-3.9 0.2-7.3 0.4-7.8 0.5-0.4 0.1-0.4 0.6 0 1.2 0.5 0.6 1.6 0.8 2.5 0.5 1-0.3 2-0.2 2.3 0.4 0.3 0.6-0.1 1-0.8 1-0.6 0-2.3 0.9-3.7 2-1.4 1.1-2.2 2.3-1.7 2.8 0.4 0.4 0.1 1.6-0.6 2.7-0.7 1.1-1.4 3.8-1.6 6-0.2 2.2-0.5 4.2-0.7 4.5-0.3 0.3-0.4-1.2-0.4-3.2 0-2.7-0.4-3.8-1.5-3.8-1.2 0-1.4-1.1-0.9-5.7 0.3-3.2 0.7-6.8 1-8 0.4-2.2 0.8-2.3 11.1-2.3z"/>
		<path id="Path 4" class="s1" d="m230.8 28.5c0.4 0.6 1.9 1.6 3.4 2.3 2.5 1.1 2.8 1.7 2.6 5.5 0 2.3 0.2 6.2 1.4 13.2h-13.7l-2.5-4.7c-2.3-4.3-2.4-4.8-1-7.3 1.1-2 2-2.5 3.7-2.1 1.7 0.5 2.7 0 3.8-1.9 0.8-1.4 1.5-3.3 1.5-4.2 0-1.1 0.3-1.4 0.8-0.8zm12.3 12.9c0.5 0.3 1.5 2.4 2.1 4.6 0.7 2.2 1 4.3 0.6 4.7-0.4 0.4-1.5 0.5-2.3 0.1-1-0.6-1.5-2.2-1.4-5.4 0.1-2.5 0.5-4.3 1-4zm86.9 7.7c0.8 0.8 2 2.1 2.7 2.9 0.7 0.8 1.3 2.1 1.3 2.8 0 0.7-0.8 1-2 0.7-1.2-0.3-2 0-2.1 0.8 0 0.6-0.4 0.3-0.9-0.8-0.5-1.1-0.8-3.3-0.7-4.9 0.1-2.5 0.4-2.7 1.7-1.5zm78 6.7c0.5 1 0.9 2.5 0.9 3.5 0.1 0.9-0.6 1.7-1.4 1.7-0.8 0-1.6-1-1.8-2.2-0.1-1.3 0.2-2.8 0.6-3.5 0.7-0.8 1.1-0.6 1.7 0.5zm47.2 1.2c0.4 0 1 0.6 1.2 1.3 0.1 0.6 0.1 1.8 0 2.5-0.2 0.6-1.1 1.2-1.9 1.2-0.8 0-1.6-0.8-1.7-1.8-0.1-1 0.2-2.2 0.7-2.5 0.5-0.4 1.2-0.7 1.7-0.7z"/>
		<path id="Path 5" class="s2" d="m113.7 24.5c0.2 0.6-0.1 2.9-0.7 5.3-0.9 3.7-0.8 4.3 0.7 4.7 1.3 0.4 1.7 1.4 1.5 3.5-0.1 2.2 0.3 3.1 1.5 3.5 1 0.2 2.5 2.2 3.3 4.4 1.3 3.5 1.3 4.1 0 5.6-0.9 1-2.3 1.4-3.8 1.1-1.2-0.3-2.2-0.1-2.2 0.4 0 0.5-1.2 1-2.6 1-2.3 0-2.4-0.1-1-1.5 0.9-0.8 1.6-2 1.6-2.5 0-0.5-1.3-2.9-5.7-9.5l2.8-5.5c1.5-3 3.1-6.9 3.5-8.5 0.3-1.6 0.8-2.6 1.1-2zm41.9 6.3c0.2 0.6 0.9 0.9 1.6 0.5 0.9-0.6 1 0.1 0.5 3-0.4 2.2-0.3 3.9 0.3 4.2 0.6 0.3 2.1-0.4 3.5-1.5 1.4-1.1 2.6-2 2.7-2 0.2 0 0.3 1.9 0.4 4.3 0.1 2.3 0.5 6.1 1 8.4 0.9 4 0.8 4.2-1.9 5.2-1.5 0.6-4.2 1.1-6 1.1-3.2 0-3.2 0-4.6-7.2-0.7-4-1-8.8-0.7-10.6 0.3-1.7 1-3.2 1.6-3.2 0.6 0 1-0.8 1.1-1.8 0-0.9 0.2-1.1 0.5-0.5zm-90.8 13.8c0.2 3.3 0.7 6.5 1.3 7 0.6 0.6 0.9-0.1 0.9-2 0-1.8 0.3-2.6 0.9-2 0.4 0.5 1.1 2.1 1.4 3.5 0.6 2.4 0.4 2.5-3.6 2.5-2.8 0-4.1-0.4-4-1.3 0.2-0.6 0.6-3.3 0.9-6 0.3-2.6 0.9-5.4 1.2-6.2 0.4-0.8 0.8 1.2 1 4.5zm111.4-5c0.6 0.3 1 1.3 0.9 2.1-0.1 0.8 0.4 1.7 1 2.1 0.6 0.5 1.5 0.1 2-0.7 0.4-0.8 1-1.3 1.3-1 0.2 0.3 0.8 2.9 1.3 5.8 0.7 4.8 0.7 5.2-1.2 5.2-1.7 0-1.7-0.2-0.5-1q1.5-1 0.2-1c-0.6 0-2.3-2.3-3.7-5-1.4-2.8-2.5-5.5-2.4-6.1 0.1-0.5 0.6-0.7 1.1-0.4zm-98 0.5c0.4 0 0.8 1.1 0.8 2.5 0 1.4 0.5 2.6 1 2.7 0.6 0.2 1.4 2 1.8 4 0.6 3 0.4 3.9-1.3 4.8-1.1 0.7-3 0.9-4.3 0.6-1.9-0.5-2.1-1.1-1.6-4.4 0.3-2 1.1-5.2 1.7-7 0.5-1.7 1.4-3.2 1.9-3.2zm93 5c0.7 0 2.1 1.3 3 3 1 1.6 1.8 3.7 1.8 4.5 0 1-0.9 1.4-2.8 1.2-2.4-0.2-2.7-0.6-3-4.5-0.2-2.9 0.1-4.2 1-4.2zm287.4 15.9c1.6 0.4 3 1.4 3.2 2.2 0.2 1-0.8 1.4-4 1.2-2.4 0-4.4-0.6-4.5-1.2-0.2-0.6 0.4-1.1 1.2-1.1 0.8 0 1.4-0.4 1.4-0.9-0.1-0.5 1.1-0.6 2.7-0.2zm-378 108.2c0.5 0 0.9 1.1 0.7 2.6-0.2 1.6-0.9 3.1-1.6 3.5-0.6 0.3-1.8 0.4-2.4 0.2-0.7-0.2-1.4-1.5-1.5-2.8-0.2-1.7 0.3-2.6 1.7-2.9 1.1-0.3 2.5-0.5 3.1-0.6zm32.7 1.9c0.6 0 2.7 0.3 4.5 0.7 1.9 0.5 3.2 1.4 3.2 2.3 0 0.8-1.1 3.2-2.3 5.3-1.2 2-2.6 3.7-3.2 3.7-0.5 0-0.3 0.5 0.5 1q1.5 1 0.3 1c-0.7 0-1.1 0.4-0.8 1 0.3 0.6-0.1 1.3-0.9 1.7-0.7 0.5-1.5 1.5-1.8 2.3-0.5 1.2-0.7 1.1-1.2-0.5-0.4-1.1-1.4-3.2-2.2-4.8-0.7-1.5-1.4-3.5-1.4-4.5 0-0.9 0.9-2.8 2-4.2 1.1-1.4 2-3.1 2-3.8 0-0.6 0.6-1.2 1.3-1.2zm219.6 16c0.3-0.1 1.2 0.6 1.9 1.5 1 1.2 1 2.1 0 4.5-0.7 1.7-1.9 3-2.5 3-0.7 0-1.3-0.6-1.3-1.3 0-0.6 0.3-2.7 0.6-4.5 0.3-1.7 0.9-3.2 1.3-3.2zm86.8 4.7c1 0.3 2.4 1 3.1 1.5 0.7 0.5 1 1.8 0.6 3.5-0.4 1.6-1.3 4-2 5.5-0.8 1.6-1.7 2.8-2.1 2.8-0.5 0-1.2-2.8-1.7-6.2-0.6-3.4-0.7-6.6-0.3-7 0.4-0.4 1.5-0.4 2.4-0.1zm40.7 12.6c0.6 0.2 1.2 1 1.3 1.8 0.2 0.8-0.4 2.3-1.2 3.4q-1.5 2-2.5 1c-0.8-0.7-0.7-1.9 0.1-3.8 0.7-1.5 1.7-2.6 2.3-2.4z"/>
		<path id="Path 6" class="s3" d="m463.5 63.5c0.9 1.1 1.5 2.6 1.5 3.3 0 0.6-0.4 1.2-1 1.2-0.6 0-1-0.5-1-1 0-0.5-1.1-1-2.5-1-1.4 0-3.6 0-5 0-1.4 0-2.7-0.5-3-1-0.3-0.6 1.4-0.9 4.5-0.7 3.9 0.1 5-0.1 5-1.3 0.1-1.1 0.4-1 1.5 0.5zm-308.3 110.4l5.1 0.6c2.9 0.3 5.6 0.9 6 1.3 0.5 0.4 0.3 2.5-0.2 4.7-0.6 2.2-1.1 5.7-1.1 7.7 0 2.1-0.4 3.8-1 3.8-0.5 0-1-0.4-1-1 0-0.6-1-1.2-2.2-1.4-1.3-0.3-2.9 0.2-3.5 1-1.1 1.2-1.5 1.2-2.8-0.4-0.8-0.9-1.4-3.3-1.5-5.2 0-1.9 0.5-5.2 1.1-7.3zm20.4 1.8c1.1 0.2 1.2 0.8 0.4 2.3-0.5 1.1-1.8 2.4-2.7 3-1 0.5-2 0.7-2.3 0.5-0.3-0.2-0.3-1.6-0.1-2.9 0.1-1.4 1-2.7 1.8-2.9 0.8-0.2 2.2-0.2 2.9 0zm6.9 0.3c0.9 0 1.1 1.3 0.8 4.2-0.3 2.4-0.9 5-1.4 5.8q-0.8 1.5-0.8 0.2c-0.1-0.7-0.6-1.2-1.3-1.2-0.7 0-1.3-0.8-1.2-1.8 0-0.9 0.6-3 1.4-4.5 0.7-1.5 1.8-2.7 2.5-2.7zm48.5 5.5c1.4 0.2 3.9 0.7 5.5 1 1.7 0.3 3.2 0.8 3.5 1 0.3 0.3 0 2.8-0.7 5.5-0.7 2.8-1.3 7-1.3 9.5 0 3.1-0.4 4.6-1.5 5-0.9 0.3-1.5-0.1-1.5-1 0-0.8-0.8-1.7-1.7-2-1-0.2-2.1-1.3-2.5-2.5-0.6-1.4-1.7-2-4-2-2.4 0-2.9-0.3-1.8-0.9 1.2-0.7 1-1-1-1.4-2.1-0.5-2.4-1-1.9-3.4 0.4-1.6 0.8-3.5 1-4.3 0.2-0.8 1.5-2.3 2.9-3.3 1.5-1 3.6-1.5 5-1.2zm15.2 1.5c1.1 0.6 1.9 1.5 1.9 2-0.1 0.6-0.8 2.4-3.4 7.5l-0.7-2.5c-0.3-1.4-0.4-3.7-0.1-5.2 0.3-2.4 0.7-2.6 2.3-1.8z"/>
	</g>
</svg>